Lista 2/src/xand.vcd
$date
  Mon Mar 12 16:55:01 2018
$end
$version
  GHDL v0
$end
$timescale
  1 fs
$end
$var reg 4 ! a[3:0] $end
$var reg 4 " b[3:0] $end
$var reg 1 # clk $end
$var reg 4 $ c[3:0] $end
$scope module uut $end
$var reg 1 % clk $end
$var reg 4 & a[3:0] $end
$var reg 4 ' b[3:0] $end
$var reg 4 ( c[3:0] $end
$upscope $end
$enddefinitions $end
#0
b0000 !
b0000 "
0#
b0000 $
0%
b0000 &
b0000 '
b0000 (
#1000000
b0001 "
b0001 '
#2000000
b0010 "
b0010 '
#3000000
b0011 "
b0011 '
#4000000
b0100 "
b0100 '
#5000000
b0101 "
b0101 '
#6000000
b0110 "
b0110 '
#7000000
b0111 "
b0111 '
#8000000
b1000 "
b1000 '
#9000000
b1001 "
b1001 '
#10000000
b1010 "
b1010 '
#11000000
b1011 "
b1011 '
#12000000
b1100 "
b1100 '
#13000000
b1101 "
b1101 '
#14000000
b1110 "
b1110 '
#15000000
b1111 "
b1111 '
#16000000
b0000 "
b0000 '
#17000000
b0001 !
b0001 "
b0001 $
b0001 &
b0001 '
b0001 (
#18000000
b0010 "
b0000 $
b0010 '
b0000 (
#19000000
b0011 "
b0001 $
b0011 '
b0001 (
#20000000
b0100 "
b0000 $
b0100 '
b0000 (
#21000000
b0101 "
b0001 $
b0101 '
b0001 (
#22000000
b0110 "
b0000 $
b0110 '
b0000 (
#23000000
b0111 "
b0001 $
b0111 '
b0001 (
#24000000
b1000 "
b0000 $
b1000 '
b0000 (
#25000000
b1001 "
b0001 $
b1001 '
b0001 (
#26000000
b1010 "
b0000 $
b1010 '
b0000 (
#27000000
b1011 "
b0001 $
b1011 '
b0001 (
#28000000
b1100 "
b0000 $
b1100 '
b0000 (
#29000000
b1101 "
b0001 $
b1101 '
b0001 (
#30000000
b1110 "
b0000 $
b1110 '
b0000 (
#31000000
b1111 "
b0001 $
b1111 '
b0001 (
#32000000
b0000 "
b0000 $
b0000 '
b0000 (
#33000000
b0001 "
b0001 $
b0001 '
b0001 (
#34000000
b0010 !
b0010 "
b0010 $
b0010 &
b0010 '
b0010 (
#35000000
b0011 "
b0011 '
#36000000
b0100 "
b0000 $
b0100 '
b0000 (
#37000000
b0101 "
b0101 '
#38000000
b0110 "
b0010 $
b0110 '
b0010 (
#39000000
b0111 "
b0111 '
#40000000
b1000 "
b0000 $
b1000 '
b0000 (
#41000000
b1001 "
b1001 '
#42000000
b1010 "
b0010 $
b1010 '
b0010 (
#43000000
b1011 "
b1011 '
#44000000
b1100 "
b0000 $
b1100 '
b0000 (
#45000000
b1101 "
b1101 '
#46000000
b1110 "
b0010 $
b1110 '
b0010 (
#47000000
b1111 "
b1111 '
#48000000
b0000 "
b0000 $
b0000 '
b0000 (
#49000000
b0001 "
b0001 '
#50000000
b0010 "
b0010 $
b0010 '
b0010 (
#51000000
b0011 !
b0011 "
b0011 $
b0011 &
b0011 '
b0011 (
#52000000
b0100 "
b0000 $
b0100 '
b0000 (
#53000000
b0101 "
b0001 $
b0101 '
b0001 (
#54000000
b0110 "
b0010 $
b0110 '
b0010 (
#55000000
b0111 "
b0011 $
b0111 '
b0011 (
#56000000
b1000 "
b0000 $
b1000 '
b0000 (
#57000000
b1001 "
b0001 $
b1001 '
b0001 (
#58000000
b1010 "
b0010 $
b1010 '
b0010 (
#59000000
b1011 "
b0011 $
b1011 '
b0011 (
#60000000
b1100 "
b0000 $
b1100 '
b0000 (
#61000000
b1101 "
b0001 $
b1101 '
b0001 (
#62000000
b1110 "
b0010 $
b1110 '
b0010 (
#63000000
b1111 "
b0011 $
b1111 '
b0011 (
#64000000
b0000 "
b0000 $
b0000 '
b0000 (
#65000000
b0001 "
b0001 $
b0001 '
b0001 (
#66000000
b0010 "
b0010 $
b0010 '
b0010 (
#67000000
b0011 "
b0011 $
b0011 '
b0011 (
#68000000
b0100 !
b0100 "
b0100 $
b0100 &
b0100 '
b0100 (
#69000000
b0101 "
b0101 '
#70000000
b0110 "
b0110 '
#71000000
b0111 "
b0111 '
#72000000
b1000 "
b0000 $
b1000 '
b0000 (
#73000000
b1001 "
b1001 '
#74000000
b1010 "
b1010 '
#75000000
b1011 "
b1011 '
#76000000
b1100 "
b0100 $
b1100 '
b0100 (
#77000000
b1101 "
b1101 '
#78000000
b1110 "
b1110 '
#79000000
b1111 "
b1111 '
#80000000
b0000 "
b0000 $
b0000 '
b0000 (
#81000000
b0001 "
b0001 '
#82000000
b0010 "
b0010 '
#83000000
b0011 "
b0011 '
#84000000
b0100 "
b0100 $
b0100 '
b0100 (
#85000000
b0101 !
b0101 "
b0101 $
b0101 &
b0101 '
b0101 (
#86000000
b0110 "
b0100 $
b0110 '
b0100 (
#87000000
b0111 "
b0101 $
b0111 '
b0101 (
#88000000
b1000 "
b0000 $
b1000 '
b0000 (
#89000000
b1001 "
b0001 $
b1001 '
b0001 (
#90000000
b1010 "
b0000 $
b1010 '
b0000 (
#91000000
b1011 "
b0001 $
b1011 '
b0001 (
#92000000
b1100 "
b0100 $
b1100 '
b0100 (
#93000000
b1101 "
b0101 $
b1101 '
b0101 (
#94000000
b1110 "
b0100 $
b1110 '
b0100 (
#95000000
b1111 "
b0101 $
b1111 '
b0101 (
#96000000
b0000 "
b0000 $
b0000 '
b0000 (
#97000000
b0001 "
b0001 $
b0001 '
b0001 (
#98000000
b0010 "
b0000 $
b0010 '
b0000 (
#99000000
b0011 "
b0001 $
b0011 '
b0001 (
#100000000
b0100 "
b0100 $
b0100 '
b0100 (
#101000000
b0101 "
b0101 $
b0101 '
b0101 (
#102000000
b0110 !
b0110 "
b0110 $
b0110 &
b0110 '
b0110 (
#103000000
b0111 "
b0111 '
#104000000
b1000 "
b0000 $
b1000 '
b0000 (
#105000000
b1001 "
b1001 '
#106000000
b1010 "
b0010 $
b1010 '
b0010 (
#107000000
b1011 "
b1011 '
#108000000
b1100 "
b0100 $
b1100 '
b0100 (
#109000000
b1101 "
b1101 '
#110000000
b1110 "
b0110 $
b1110 '
b0110 (
#111000000
b1111 "
b1111 '
#112000000
b0000 "
b0000 $
b0000 '
b0000 (
#113000000
b0001 "
b0001 '
#114000000
b0010 "
b0010 $
b0010 '
b0010 (
#115000000
b0011 "
b0011 '
#116000000
b0100 "
b0100 $
b0100 '
b0100 (
#117000000
b0101 "
b0101 '
#118000000
b0110 "
b0110 $
b0110 '
b0110 (
#119000000
b0111 !
b0111 "
b0111 $
b0111 &
b0111 '
b0111 (
#120000000
b1000 "
b0000 $
b1000 '
b0000 (
#121000000
b1001 "
b0001 $
b1001 '
b0001 (
#122000000
b1010 "
b0010 $
b1010 '
b0010 (
#123000000
b1011 "
b0011 $
b1011 '
b0011 (
#124000000
b1100 "
b0100 $
b1100 '
b0100 (
#125000000
b1101 "
b0101 $
b1101 '
b0101 (
#126000000
b1110 "
b0110 $
b1110 '
b0110 (
#127000000
b1111 "
b0111 $
b1111 '
b0111 (
#128000000
b0000 "
b0000 $
b0000 '
b0000 (
#129000000
b0001 "
b0001 $
b0001 '
b0001 (
#130000000
b0010 "
b0010 $
b0010 '
b0010 (
#131000000
b0011 "
b0011 $
b0011 '
b0011 (
#132000000
b0100 "
b0100 $
b0100 '
b0100 (
#133000000
b0101 "
b0101 $
b0101 '
b0101 (
#134000000
b0110 "
b0110 $
b0110 '
b0110 (
#135000000
b0111 "
b0111 $
b0111 '
b0111 (
#136000000
b1000 !
b1000 "
b1000 $
b1000 &
b1000 '
b1000 (
#137000000
b1001 "
b1001 '
#138000000
b1010 "
b1010 '
#139000000
b1011 "
b1011 '
#140000000
b1100 "
b1100 '
#141000000
b1101 "
b1101 '
#142000000
b1110 "
b1110 '
#143000000
b1111 "
b1111 '
#144000000
b0000 "
b0000 $
b0000 '
b0000 (
#145000000
b0001 "
b0001 '
#146000000
b0010 "
b0010 '
#147000000
b0011 "
b0011 '
#148000000
b0100 "
b0100 '
#149000000
b0101 "
b0101 '
#150000000
b0110 "
b0110 '
#151000000
b0111 "
b0111 '
#152000000
b1000 "
b1000 $
b1000 '
b1000 (
#153000000
b1001 !
b1001 "
b1001 $
b1001 &
b1001 '
b1001 (
#154000000
b1010 "
b1000 $
b1010 '
b1000 (
#155000000
b1011 "
b1001 $
b1011 '
b1001 (
#156000000
b1100 "
b1000 $
b1100 '
b1000 (
#157000000
b1101 "
b1001 $
b1101 '
b1001 (
#158000000
b1110 "
b1000 $
b1110 '
b1000 (
#159000000
b1111 "
b1001 $
b1111 '
b1001 (
#160000000
b0000 "
b0000 $
b0000 '
b0000 (
#161000000
b0001 "
b0001 $
b0001 '
b0001 (
#162000000
b0010 "
b0000 $
b0010 '
b0000 (
#163000000
b0011 "
b0001 $
b0011 '
b0001 (
#164000000
b0100 "
b0000 $
b0100 '
b0000 (
#165000000
b0101 "
b0001 $
b0101 '
b0001 (
#166000000
b0110 "
b0000 $
b0110 '
b0000 (
#167000000
b0111 "
b0001 $
b0111 '
b0001 (
#168000000
b1000 "
b1000 $
b1000 '
b1000 (
#169000000
b1001 "
b1001 $
b1001 '
b1001 (
#170000000
b1010 !
b1010 "
b1010 $
b1010 &
b1010 '
b1010 (
#171000000
b1011 "
b1011 '
#172000000
b1100 "
b1000 $
b1100 '
b1000 (
#173000000
b1101 "
b1101 '
#174000000
b1110 "
b1010 $
b1110 '
b1010 (
#175000000
b1111 "
b1111 '
#176000000
b0000 "
b0000 $
b0000 '
b0000 (
#177000000
b0001 "
b0001 '
#178000000
b0010 "
b0010 $
b0010 '
b0010 (
#179000000
b0011 "
b0011 '
#180000000
b0100 "
b0000 $
b0100 '
b0000 (
#181000000
b0101 "
b0101 '
#182000000
b0110 "
b0010 $
b0110 '
b0010 (
#183000000
b0111 "
b0111 '
#184000000
b1000 "
b1000 $
b1000 '
b1000 (
#185000000
b1001 "
b1001 '
#186000000
b1010 "
b1010 $
b1010 '
b1010 (
#187000000
b1011 !
b1011 "
b1011 $
b1011 &
b1011 '
b1011 (
#188000000
b1100 "
b1000 $
b1100 '
b1000 (
#189000000
b1101 "
b1001 $
b1101 '
b1001 (
#190000000
b1110 "
b1010 $
b1110 '
b1010 (
#191000000
b1111 "
b1011 $
b1111 '
b1011 (
#192000000
b0000 "
b0000 $
b0000 '
b0000 (
#193000000
b0001 "
b0001 $
b0001 '
b0001 (
#194000000
b0010 "
b0010 $
b0010 '
b0010 (
#195000000
b0011 "
b0011 $
b0011 '
b0011 (
#196000000
b0100 "
b0000 $
b0100 '
b0000 (
#197000000
b0101 "
b0001 $
b0101 '
b0001 (
#198000000
b0110 "
b0010 $
b0110 '
b0010 (
#199000000
b0111 "
b0011 $
b0111 '
b0011 (
#200000000
b1000 "
b1000 $
b1000 '
b1000 (
#201000000
b1001 "
b1001 $
b1001 '
b1001 (
#202000000
b1010 "
b1010 $
b1010 '
b1010 (
#203000000
b1011 "
b1011 $
b1011 '
b1011 (
#204000000
b1100 !
b1100 "
b1100 $
b1100 &
b1100 '
b1100 (
#205000000
b1101 "
b1101 '
#206000000
b1110 "
b1110 '
#207000000
b1111 "
b1111 '
#208000000
b0000 "
b0000 $
b0000 '
b0000 (
#209000000
b0001 "
b0001 '
#210000000
b0010 "
b0010 '
#211000000
b0011 "
b0011 '
#212000000
b0100 "
b0100 $
b0100 '
b0100 (
#213000000
b0101 "
b0101 '
#214000000
b0110 "
b0110 '
#215000000
b0111 "
b0111 '
#216000000
b1000 "
b1000 $
b1000 '
b1000 (
#217000000
b1001 "
b1001 '
#218000000
b1010 "
b1010 '
#219000000
b1011 "
b1011 '
#220000000
b1100 "
b1100 $
b1100 '
b1100 (
#221000000
b1101 !
b1101 "
b1101 $
b1101 &
b1101 '
b1101 (
#222000000
b1110 "
b1100 $
b1110 '
b1100 (
#223000000
b1111 "
b1101 $
b1111 '
b1101 (
#224000000
b0000 "
b0000 $
b0000 '
b0000 (
#225000000
b0001 "
b0001 $
b0001 '
b0001 (
#226000000
b0010 "
b0000 $
b0010 '
b0000 (
#227000000
b0011 "
b0001 $
b0011 '
b0001 (
#228000000
b0100 "
b0100 $
b0100 '
b0100 (
#229000000
b0101 "
b0101 $
b0101 '
b0101 (
#230000000
b0110 "
b0100 $
b0110 '
b0100 (
#231000000
b0111 "
b0101 $
b0111 '
b0101 (
#232000000
b1000 "
b1000 $
b1000 '
b1000 (
#233000000
b1001 "
b1001 $
b1001 '
b1001 (
#234000000
b1010 "
b1000 $
b1010 '
b1000 (
#235000000
b1011 "
b1001 $
b1011 '
b1001 (
#236000000
b1100 "
b1100 $
b1100 '
b1100 (
#237000000
b1101 "
b1101 $
b1101 '
b1101 (
#238000000
b1110 !
b1110 "
b1110 $
b1110 &
b1110 '
b1110 (
#239000000
b1111 "
b1111 '
#240000000
b0000 "
b0000 $
b0000 '
b0000 (
#241000000
b0001 "
b0001 '
#242000000
b0010 "
b0010 $
b0010 '
b0010 (
#243000000
b0011 "
b0011 '
#244000000
b0100 "
b0100 $
b0100 '
b0100 (
#245000000
b0101 "
b0101 '
#246000000
b0110 "
b0110 $
b0110 '
b0110 (
#247000000
b0111 "
b0111 '
#248000000
b1000 "
b1000 $
b1000 '
b1000 (
#249000000
b1001 "
b1001 '
#250000000
b1010 "
b1010 $
b1010 '
b1010 (
#251000000
b1011 "
b1011 '
#252000000
b1100 "
b1100 $
b1100 '
b1100 (
#253000000
b1101 "
b1101 '
#254000000
b1110 "
b1110 $
b1110 '
b1110 (
#255000000
b1111 !
b1111 "
b1111 $
b1111 &
b1111 '
b1111 (
#256000000
b0000 "
b0000 $
b0000 '
b0000 (
#257000000
b0001 "
b0001 $
b0001 '
b0001 (
#258000000
b0010 "
b0010 $
b0010 '
b0010 (
#259000000
b0011 "
b0011 $
b0011 '
b0011 (
#260000000
b0100 "
b0100 $
b0100 '
b0100 (
#261000000
b0101 "
b0101 $
b0101 '
b0101 (
#262000000
b0110 "
b0110 $
b0110 '
b0110 (
#263000000
b0111 "
b0111 $
b0111 '
b0111 (
#264000000
b1000 "
b1000 $
b1000 '
b1000 (
#265000000
b1001 "
b1001 $
b1001 '
b1001 (
#266000000
b1010 "
b1010 $
b1010 '
b1010 (
#267000000
b1011 "
b1011 $
b1011 '
b1011 (
#268000000
b1100 "
b1100 $
b1100 '
b1100 (
#269000000
b1101 "
b1101 $
b1101 '
b1101 (
#270000000
b1110 "
b1110 $
b1110 '
b1110 (
#271000000
b1111 "
b1111 $
b1111 '
b1111 (
#272000000
b0000 !
b0000 "
b0000 $
b0000 &
b0000 '
b0000 (
#273000000
b0001 "
b0001 '
#274000000
b0010 "
b0010 '
#275000000
b0011 "
b0011 '
#276000000
b0100 "
b0100 '
#277000000
b0101 "
b0101 '
#278000000
b0110 "
b0110 '
#279000000
b0111 "
b0111 '
#280000000
b1000 "
b1000 '
#281000000
b1001 "
b1001 '
#282000000
b1010 "
b1010 '
#283000000
b1011 "
b1011 '
#284000000
b1100 "
b1100 '
#285000000
b1101 "
b1101 '
#286000000
b1110 "
b1110 '
#287000000
b1111 "
b1111 '
#288000000
b0000 "
b0000 '
#289000000
b0001 !
b0001 "
b0001 $
b0001 &
b0001 '
b0001 (
